<?xml version="1.0" encoding="utf-8"?>
<!-- Generator: Adobe Illustrator 25.2.3, SVG Export Plug-In . SVG Version: 6.00 Build 0)  -->
<svg version="1.1" id="Layer_1" xmlns="http://www.w3.org/2000/svg" xmlns:xlink="http://www.w3.org/1999/xlink" x="0px" y="0px"
	 viewBox="0 0 566.5 169.7" style="enable-background:new 0 0 566.5 169.7;" xml:space="preserve">
<style type="text/css">
	.st0{fill:#FFFFFF;}
	.st1{fill:none;}
	.st2{fill:#ED186B;}
</style>
<g id="Layer_2_1_">
	<g id="Layer_1-2">
		<path class="st0" d="M30.9,149H10.2l-4.3,19.8H0l17.2-77H24l17.4,77h-6.2L30.9,149z M29.7,143.6l-9.1-42.5l-9.1,42.5H29.7z"/>
		<path class="st0" d="M96.6,108.1v44.4c0,10.8-5.9,16.3-17.6,16.3H61v-77h18C90.6,91.8,96.6,97.3,96.6,108.1z M78.6,97.3H67v66
			h11.5c8.7,0,12.1-3.6,12.1-12.8V110C90.6,100.9,87.2,97.3,78.6,97.3L78.6,97.3z"/>
		<path class="st0" d="M138.2,168.8h-6.4l-16.6-77h6.2l13.8,66.2L149,91.8h5.9L138.2,168.8z"/>
		<path class="st0" d="M174.9,168.8v-77h5.9v77H174.9z"/>
		<path class="st0" d="M232.8,118.4v-9.9c0-8.5-3.1-12.2-11.3-12.2s-11.3,3.8-11.3,12.2v5.4c0,5.7,2,7.3,7.8,10.3l11.8,6.5
			c5.4,2.9,9.2,7.1,9.2,13v9.9c0,11-5.6,16.1-17.3,16.1h-0.2c-11.7,0-17.3-4.9-17.3-16.1v-12.5h5.9v10.8c0,8.4,3.1,12.4,11.4,12.4
			s11.5-4.1,11.5-12.4v-6.2c0-5.7-2.3-7.7-8.1-11l-11.6-6.3c-6.4-3.6-9.1-6.6-9.1-12.8v-8.9c0-10.6,6.6-15.8,17.2-15.8h0.2
			c10.6,0,17.2,5.3,17.2,15.8v11.7H232.8z"/>
		<path class="st0" d="M261.5,168.8v-77h30.2v5.5h-24.3V127h20.9v5.5h-20.9v30.8H292v5.5H261.5z"/>
		<path class="st0" d="M345.5,168.8l-12.6-33.2h-13.4v33.2h-5.9v-77h18.1c11.7,0,17.6,5.5,17.6,16.3v11.2c0,8.4-3.5,13.5-10.6,15.4
			l13.2,34.1L345.5,168.8z M343.3,117.4V110c0-9.1-3.4-12.8-12.1-12.8h-11.8v32.9h11.8C339.9,130.2,343.3,126.4,343.3,117.4z"/>
		<g>
			<path class="st1" d="M421.8,128.3h96.4c23.3,0,42.3-19,42.3-42.4v-0.2c0-23.3-19-42.3-42.4-42.3c-1,0-2,0-3.3,0.1l-2.8,0.2
				l-0.4-2.7c-1.9-11.1-8.1-20.8-17.3-27.4c-9.3-6.5-20.5-9-31.6-7.1c-17.6,3.1-31.4,16.9-34.4,34.5l-0.4,2.4h-4.6v0.1l-1.5,0
				c-23.4,0.4-42.1,19.7-41.7,43C380.5,109.5,398.8,127.9,421.8,128.3z"/>
			<path class="st2" d="M518.2,37.4c-0.3,0-0.7,0-1.1,0C512.8,19,498.2,4.7,479.6,1c-12.7-2.6-25.6-0.1-36.3,7
				c-10.4,6.9-17.6,17.4-20.4,29.5h-1.1c-26.3,0.4-47.3,21.4-47.7,47.7c-0.3,26.6,21.1,48.6,47.7,49h96.4
				c26.6,0,48.3-21.7,48.3-48.3v-0.2C566.5,59.1,544.8,37.4,518.2,37.4z M421.8,43.6l1.5,0v-0.1h4.6l0.4-2.4
				c3-17.5,16.8-31.4,34.4-34.5c11.1-1.9,22.4,0.6,31.6,7.1c9.3,6.5,15.4,16.2,17.3,27.4l0.4,2.7l2.8-0.2c1.2-0.1,2.3-0.1,3.3-0.1
				c23.4,0,42.4,19,42.4,42.3v0.2c0,23.4-19,42.4-42.3,42.4h-96.4c-23-0.4-41.3-18.7-41.7-41.7C379.7,63.2,398.4,43.9,421.8,43.6z"
				/>
		</g>
		<path class="st0" d="M424.5,97.4c0,5.9-3.4,8.6-9.5,8.6h-0.1c-6.1,0-9.5-2.6-9.5-8.6V73c0-5.7,3.4-8.6,9.5-8.6h0.1
			c6.1,0,9.5,2.9,9.5,8.6v7.1h-4.2v-6c0-4.2-1.6-5.9-5.4-5.9s-5.4,1.7-5.4,5.9v22.2c0,4.2,1.6,5.9,5.4,5.9s5.4-1.7,5.4-5.9v-7h4.2
			V97.4z"/>
		<path class="st0" d="M449.9,105.5h-15.7V64.9h4.2v36.8h11.5V105.5z"/>
		<path class="st0" d="M466.7,64.5h0.5c6.1,0,9.5,2.8,9.5,8.6v24.3c0,5.8-3.4,8.6-9.5,8.6h-0.5c-6.1,0-9.5-2.8-9.5-8.6V73
			C457.2,67.2,460.5,64.5,466.7,64.5z M466.9,102.3c3.9,0,5.6-1.6,5.6-5.9V74.1c0-4.2-1.7-5.9-5.6-5.9s-5.6,1.6-5.6,5.9v22.3
			C461.3,100.6,463,102.2,466.9,102.3L466.9,102.3z"/>
		<path class="st0" d="M505.4,97.4c0,5.9-3.2,8.6-9.4,8.6h-0.2c-6.1,0-9.4-2.6-9.4-8.6V64.9h4.2v31.4c0,4.2,1.5,5.9,5.3,5.9
			s5.3-1.6,5.3-5.9V64.9h4.2V97.4z"/>
		<path class="st0" d="M534.6,73.5v23.4c0,5.8-3.4,8.6-9.5,8.6h-9.7V64.9h9.7C531.2,64.9,534.6,67.7,534.6,73.5z M524.8,68.7h-5.3
			v33.1h5.3c3.9,0,5.6-1.6,5.6-5.9V74.6C530.4,70.3,528.7,68.7,524.8,68.7L524.8,68.7z"/>
	</g>
</g>
</svg>
