<svg width="26" height="25" viewBox="0 0 26 25" fill="none" xmlns="http://www.w3.org/2000/svg">
<path d="M13 0L8 5H12V8H14V5H18L13 0ZM0 10V25H26V10H0ZM4 12H22C22 13.105 22.895 14 24 14V21C22.895 21 22 21.895 22 23H4C4 21.895 3.105 21 2 21V14C3.105 14 4 13.105 4 12ZM13 13C10.79 13 9 15.016 9 17.5C9 19.984 10.79 22 13 22C15.21 22 17 19.984 17 17.5C17 15.016 15.21 13 13 13ZM13 15C14.102 15 15 16.121 15 17.5C15 18.879 14.102 20 13 20C11.898 20 11 18.879 11 17.5C11 16.121 11.898 15 13 15ZM5.5 16C5.10218 16 4.72064 16.158 4.43934 16.4393C4.15804 16.7206 4 17.1022 4 17.5C4 17.8978 4.15804 18.2794 4.43934 18.5607C4.72064 18.842 5.10218 19 5.5 19C5.89782 19 6.27936 18.842 6.56066 18.5607C6.84196 18.2794 7 17.8978 7 17.5C7 17.1022 6.84196 16.7206 6.56066 16.4393C6.27936 16.158 5.89782 16 5.5 16ZM20.5 16C20.1022 16 19.7206 16.158 19.4393 16.4393C19.158 16.7206 19 17.1022 19 17.5C19 17.8978 19.158 18.2794 19.4393 18.5607C19.7206 18.842 20.1022 19 20.5 19C20.8978 19 21.2794 18.842 21.5607 18.5607C21.842 18.2794 22 17.8978 22 17.5C22 17.1022 21.842 16.7206 21.5607 16.4393C21.2794 16.158 20.8978 16 20.5 16Z" fill="url(#paint0_linear)"/>
<defs>
<linearGradient id="paint0_linear" x1="25.9266" y1="0" x2="0.0734455" y2="0" gradientUnits="userSpaceOnUse">
<stop stop-color="#A95EEE"/>
<stop offset="1" stop-color="#FF006A"/>
</linearGradient>
</defs>
</svg>
