<svg width="20" height="27" viewBox="0 0 20 27" fill="none" xmlns="http://www.w3.org/2000/svg">
<path d="M9.977 0L9.196 0.981L0 12.504H5.977V26.604H13.977V12.504H19.954L9.977 0ZM9.977 3.206L15.801 10.504H11.977V24.604H7.977V10.504H4.153L9.977 3.206Z" fill="url(#paint0_linear)"/>
<defs>
<linearGradient id="paint0_linear" x1="19.8976" y1="0" x2="0.0563666" y2="0" gradientUnits="userSpaceOnUse">
<stop stop-color="#A95EEE"/>
<stop offset="1" stop-color="#FF006A"/>
</linearGradient>
</defs>
</svg>
